{
    "data": {
        "reviews": [
            {
                "message": "Я в этом салоне уже 2й раз. Оба раза понравилось. Баллийская программа с горячей ванной и сильные руки мастера Елены - то, что надо!\nСалон чистый, меры по ковиду соблюдают. Молодцы, что сумели сохранить деятельность в это непростое для сферы время",
                "id": "2794310",
                "authorId": "67510779",
                "authorName": "Oksana",
                "authorSurname": null,
                "authorFullName": "Oksana",
                "authorAvatar": null,
                "rating": "4.5",
                "prosReview": "Все заявленные в программе процедуры выполнены ",
                "consReview": "",
                "dateCreated": "20210111113404",
                "timesUseful": "0",
                "timesUseless": "0",
                "ratings": [
                    {
                        "grade": 5,
                        "title": "Качество оказанной услуги",
                        "id": 1
                    },
                    {
                        "grade": 5,
                        "title": "Удовлетворенность результатом",
                        "id": 2
                    },
                    {
                        "grade": 4,
                        "title": "Качество используемых материалов",
                        "id": 3
                    },
                    {
                        "grade": 4,
                        "title": "Компетентность персонала",
                        "id": 4
                    }
                ],
                "priceTitle": "SPA-программа «Балийский СПА-пакет» для двоих от SPA-салона Sunrise (5145 руб. вместо 10 290 руб.)"
            },
            {
                "message": "Обязательно рассмотрим повторные визиты.",
                "id": "2734217",
                "authorId": "98979013",
                "authorName": "Onishchenko.m",
                "authorSurname": null,
                "authorFullName": "Onishchenko.m",
                "authorAvatar": null,
                "rating": "5",
                "prosReview": "Набор процедур по SPA-программе для двоих Тай СПА релакс оптимален, массажисты очень внимательны, старательны. Нет ощущения, что люди делают процедуры спустя рукава, как это делают многие по купонам.  Девушка на ресепшн тоже очень внимательная и гостеприимная.",
                "consReview": "",
                "dateCreated": "20201019004201",
                "timesUseful": "0",
                "timesUseless": "0",
                "ratings": [
                    {
                        "grade": 5,
                        "title": "Качество оказанной услуги",
                        "id": 1
                    },
                    {
                        "grade": 5,
                        "title": "Удовлетворенность результатом",
                        "id": 2
                    },
                    {
                        "grade": 5,
                        "title": "Качество используемых материалов",
                        "id": 3
                    },
                    {
                        "grade": 5,
                        "title": "Компетентность персонала",
                        "id": 4
                    }
                ],
                "priceTitle": "SPA-программа «Тай СПА релакс» для двоих от SPA-салона Sunrise (4950 руб. вместо 11 000 руб.)"
            }
        ],
        "totalCount": "8"
    },
    "pagination": {
        "currentPage": 1,
        "pageSize": 2,
        "totalCount": 8,
        "pageCount": 4
    }
}