{
    "count": 166738,
    "next": "https://kudago.com/public-api/v1.4/events/?page=2",
    "previous": null,
    "results": [
        {
            "id": 161043,
            "title": "Фестиваль света",
            "slug": "prazdnik-festival-sveta-2017"
        },
        {
            "id": 154041,
            "title": "День России в Москве 2017",
            "slug": "prazdnik-den-rossii-2017"
        },
        {
            "id": 155978,
            "title": "III Международный фестиваль искусств «Вдохновение»",
            "slug": "vyistavka-vdohnovenie"
        },
        {
            "id": 178927,
            "title": "День города – 2019",
            "slug": "detyam-den-goroda---2019"
        },
        {
            "id": 185321,
            "title": "Новый год 2021 в Москве",
            "slug": "prazdnik-novyij-god-2020-v-moskve"
        },
        {
            "id": 177773,
            "title": "фестиваль «Чудо света»",
            "slug": "festival-chudo-sveta"
        },
        {
            "id": 160636,
            "title": "Хеллоуин 2020 в Петербурге",
            "slug": "prazdnik-hellouin-2017-2017"
        },
        {
            "id": 185410,
            "title": "новый год — 2021 в Петербурге",
            "slug": "prazdnik-novyij-god---2020"
        },
        {
            "id": 173953,
            "title": "опера Mein Herz Brennt (Германия) на стихи и музыку Rammstein с симфоническим оркестром",
            "slug": "teatr-mein-herz-brennt"
        },
        {
            "id": 171486,
            "title": "День Военно-Морского флота",
            "slug": "prazdnik-den-voenno-morskogo-flota"
        },
        {
            "id": 175281,
            "title": "Новый год — 2019",
            "slug": "vecherinka-novyij-god---2019"
        },
        {
            "id": 190066,
            "title": "3D-мэппинг шоу «Образ Победы в коллекциях и судьбе Эрмитажа» в онлайн-формате",
            "slug": "vyistavka-obraz-pobedyi-v-kollektsiyah-i-sudbe-ermitazha"
        },
        {
            "id": 155766,
            "title": "День семьи, любви и верности 2017",
            "slug": "festival-den-petra-i-fevronii"
        },
        {
            "id": 170719,
            "title": "VK Fest",
            "slug": "prazdnik-vk-fest"
        },
        {
            "id": 176596,
            "title": "День студента и Татьянин день в Петербурге",
            "slug": "prazdnik-den-studenta-v-peterburge"
        },
        {
            "id": 174126,
            "title": "неделя Джоан Роулинг в Санкт-Петербурге",
            "slug": "vstrecha-nedelya-dzhoan-rouling-v-sankt-peterburge"
        },
        {
            "id": 174183,
            "title": "Ночь искусств-2018",
            "slug": "aktsiya-noch-iskusstv-2018"
        },
        {
            "id": 165290,
            "title": "фестиваль Tinkoff Stereoleto 2019",
            "slug": "kontsert-stereoleto-2018"
        },
        {
            "id": 179108,
            "title": "фестиваль бесплатных экскурсий «Парадные Петроградской»",
            "slug": "festival-festival-paradnyih-2019"
        },
        {
            "id": 179235,
            "title": "весенний праздник фонтанов в Петергофе «Гений и место»",
            "slug": "prazdnik-prazdnik-fontanov-genij-i-mesto"
        }
    ]
}